Analysis of the ETH Zurich data; comparing 2018 to 2019
…
## # A tibble: 1 x 7
##   L1    a_est a_CI_2.5 a_CI_97.5 b_est b_CI_2.5 b_CI_97.5
##   <chr> <dbl>    <dbl>     <dbl> <dbl>    <dbl>     <dbl>
## 1 A1     1.33     1.13      1.53 -2.84    -3.15     -2.53

And now lets map it over all 32 elements of coefs:

tidy_2pl <- map_dfr(coefs_2pl[1:32], tidy_mirt_coefs, .id = "Question")

A quick peek at the result:

tidy_2pl

## # A tibble: 32 x 7
##    Question a_est a_CI_2.5 a_CI_97.5   b_est b_CI_2.5 b_CI_97.5
##    <chr>    <dbl>    <dbl>     <dbl>   <dbl>    <dbl>     <dbl>
##  1 A1        1.33    1.13       1.53 -2.84    -3.15     -2.53  
##  2 A2        1.27    1.16       1.38 -0.661   -0.739    -0.583 
##  3 A3        1.09    0.991      1.19 -0.620   -0.704    -0.535 
##  4 A4        1.46    1.34       1.57  0.0357  -0.0255    0.0968
##  5 A5        1.45    1.33       1.58 -0.984   -1.07     -0.900 
##  6 A6        1.30    1.19       1.41 -0.842   -0.925    -0.758 
##  7 A7        1.06    0.965      1.16 -0.0470  -0.121     0.0273
##  8 A8        1.98    1.83       2.13  0.140    0.0866    0.193 
##  9 A9        1.71    1.57       1.84 -0.166   -0.222    -0.109 
## 10 A10       1.64    1.51       1.77 -0.289   -0.348    -0.230 
## #  with 22 more rows
…
