Analysis of the ETH Zurich data
…
## # A tibble: 1 x 7
##   L1    a_est a_CI_2.5 a_CI_97.5 b_est b_CI_2.5 b_CI_97.5
##   <chr> <dbl>    <dbl>     <dbl> <dbl>    <dbl>     <dbl>
## 1 A1     1.20     1.01      1.40 -2.99    -3.36     -2.62

And now lets map it over all 36 elements of coefs:

tidy_2pl <- map_dfr(coefs_2pl[1:36], tidy_mirt_coefs, .id = "Question")

A quick peek at the result:

tidy_2pl

## # A tibble: 36 x 7
##    Question a_est a_CI_2.5 a_CI_97.5   b_est b_CI_2.5 b_CI_97.5
##    <chr>    <dbl>    <dbl>     <dbl>   <dbl>    <dbl>     <dbl>
##  1 A1       1.20     1.01      1.40  -2.99   -3.36      -2.62  
##  2 A2       0.562    0.476     0.648  1.67    1.41       1.94  
##  3 A3       1.35     1.23      1.47  -0.543  -0.617     -0.468 
##  4 A4       1.18     1.07      1.29  -0.592  -0.675     -0.509 
##  5 A5       1.46     1.34      1.58   0.0787  0.0147     0.143 
##  6 A6       1.55     1.42      1.69  -0.864  -0.943     -0.785 
##  7 A7       1.28     1.16      1.40  -0.896  -0.986     -0.805 
##  8 A8       1.16     1.05      1.27   0.0659 -0.00750    0.139 
##  9 A9       2.02     1.86      2.18   0.127   0.0723     0.182 
## 10 A10      1.76     1.62      1.90  -0.147  -0.206     -0.0886
## #  with 26 more rows
…
